; Engine configuration file.
; It's best edited using the editor UI and not directly,
; since the parameters that go here are not all obvious.
;
; Format:
;   [section] ; section goes between []
;   param=value ; assign values to parameters

config_version=5

[application]

config/name="SchoolTimetable"
run/main_scene="res://entryscene.tscn"
config/features=PackedStringArray("4.2")
boot_splash/bg_color=Color(0, 0, 0, 1)
boot_splash/image="res://transparent.png"
config/icon="res://schooltimetablelogo.png"
config/macos_native_icon="res://schooltimetablelogo.icns"
config/windows_native_icon="res://schooltimetablelogo.ico"

[autoload]

Init="*res://init.gd"

[debug]

gdscript/warnings/integer_division=false

[display]

window/size/viewport_width=410
window/size/viewport_height=540

[logging]

file_logging/enable_file_logging.pc=false

[physics]

common/enable_pause_aware_picking=true

[rendering]

environment/defaults/default_clear_color=Color(0, 0, 0, 1)
environment/defaults/default_environment="res://default_env.tres"
